<?xml version="1.0" encoding="UTF-8" standalone="no"?>
<svg
   xmlns:dc="http://purl.org/dc/elements/1.1/"
   xmlns:cc="http://creativecommons.org/ns#"
   xmlns:rdf="http://www.w3.org/1999/02/22-rdf-syntax-ns#"
   xmlns:svg="http://www.w3.org/2000/svg"
   xmlns="http://www.w3.org/2000/svg"
   xmlns:sodipodi="http://sodipodi.sourceforge.net/DTD/sodipodi-0.dtd"
   xmlns:inkscape="http://www.inkscape.org/namespaces/inkscape"
   width="1em"
   height="1em"
   viewBox="0 0 16 16"
   class="bi bi-person"
   fill="currentColor"
   version="1.1"
   id="svg4"
   sodipodi:docname="proveedor0.svg"
   inkscape:version="0.92.1 r15371">
  <metadata
     id="metadata10">
    <rdf:RDF>
      <cc:Work
         rdf:about="">
        <dc:format>image/svg+xml</dc:format>
        <dc:type
           rdf:resource="http://purl.org/dc/dcmitype/StillImage" />
        <dc:title></dc:title>
      </cc:Work>
    </rdf:RDF>
  </metadata>
  <defs
     id="defs8" />
  <sodipodi:namedview
     pagecolor="#ffffff"
     bordercolor="#666666"
     borderopacity="1"
     objecttolerance="10"
     gridtolerance="10"
     guidetolerance="10"
     inkscape:pageopacity="0"
     inkscape:pageshadow="2"
     inkscape:window-width="1366"
     inkscape:window-height="723"
     id="namedview6"
     showgrid="false"
     inkscape:zoom="14.75"
     inkscape:cx="8"
     inkscape:cy="8"
     inkscape:window-x="0"
     inkscape:window-y="0"
     inkscape:window-maximized="1"
     inkscape:current-layer="svg4" />
  <path
     d="m 8.8731425,15.016949 c 0,0 0.8282215,0 0.8282215,-1.163798 0,-1.163797 -0.8282215,-4.6551887 -4.969326,-4.6551887 -4.14110524,0 -4.96932618,3.4913917 -4.96932618,4.6551887 0,1.163798 0.82822094,1.163798 0.82822094,1.163798 z M 0.59507384,13.918325 v -0.0024 z m 0.014073,-0.06518 H 8.8549153 a 0.22693255,0.31888044 0 0 0 0.0116,-0.0024 l 0.00657,-0.0024 C 8.8723153,13.562202 8.7455968,12.700992 8.184063,11.911938 7.6440628,11.153141 6.6278358,10.361759 4.732038,10.361759 c -1.896626,0 -2.9120251,0.791382 -3.4520252,1.550179 -0.56153395,0.789054 -0.68742354,1.650264 -0.68908004,1.936558 a 0.86963203,1.221987 0 0 0 0.0182143,0.0046 z m 8.26067646,0.06518 v -0.0024 z M 4.732038,6.8703683 a 1.656442,2.3275944 0 1 0 0,-4.6551886 1.656442,2.3275944 0 0 0 0,4.6551886 z M 7.2167008,4.5427738 a 2.4846631,3.4913915 0 1 1 -4.9693259,0 2.4846631,3.4913915 0 0 1 4.9693259,0 z"
     id="path2"
     style="fill:#b3b3b3;fill-rule:evenodd;stroke-width:0.99999994"
     inkscape:connector-curvature="0" />
  <g
     transform="matrix(0.90066555,0,0,1.2142669,3.315612,-2.0439124)"
     id="g16"
     style="fill:#b3b3b3;stroke-width:0.95622742">
    <rect
       rx="0.2957418"
       ry="0.17933375"
       inkscape:transform-center-y="1.3167223"
       inkscape:transform-center-x="3.3780585"
       transform="matrix(0.91591394,-0.40137471,0.31945879,0.94760017,0,0)"
       y="14.406187"
       x="4.5419507"
       height="0.82000095"
       width="4.7644539"
       id="rect3706"
       style="fill:#b3b3b3;fill-rule:evenodd;stroke-width:0.95807666" />
    <path
       sodipodi:nodetypes="ssssssssss"
       inkscape:connector-curvature="0"
       id="rect3708"
       d="M 2.432336,2.991658 C 2.570378,2.9070335 2.1851225,2.5397353 2.936539,2.1378766 3.1766008,2.0094912 4.0093122,1.5431661 4.3925624,1.5161307 4.499403,1.5085944 4.8498576,1.6553863 4.9594448,1.9128045 L 9.2229539,11.92766 c 0.1095857,0.25742 0.1150622,0.509127 0.018221,0.56113 l -0.081973,0.04402 c -0.096841,0.052 -0.2561297,-0.11716 -0.3678282,-0.373399 L 4.4104729,2.1096388 C 4.2987745,1.8534032 2.3380542,3.0494509 2.432336,2.991658 Z"
       style="fill:#b3b3b3;fill-rule:evenodd;stroke-width:0.95622742" />
    <ellipse
       ry="1.163829"
       rx="0.91871077"
       cy="13.008506"
       cx="8.8560486"
       id="path3712"
       style="fill:#b3b3b3;fill-rule:evenodd;stroke-width:0.95622742" />
    <rect
       transform="matrix(0.34713582,0.93781487,-0.9011155,0.43357912,0,0)"
       ry="0.077179298"
       rx="0.16977073"
       y="-10.120432"
       x="9.775445"
       height="5.4479713"
       width="4.481945"
       id="rect3718"
       style="fill:#b3b3b3;fill-rule:evenodd;stroke-width:0.95834255" />
    <rect
       transform="matrix(0.90036944,-0.43512626,0.35086068,0.93642767,0,0)"
       ry="0.13299589"
       rx="0.2445516"
       y="6.9681497"
       x="5.1814427"
       height="2.6976953"
       width="4.0515685"
       id="rect3720"
       style="fill:#b3b3b3;fill-rule:evenodd;stroke-width:0.95824218" />
  </g>
</svg>
