<?xml version="1.0" encoding="UTF-8" standalone="no"?>
<svg
   xmlns:dc="http://purl.org/dc/elements/1.1/"
   xmlns:cc="http://creativecommons.org/ns#"
   xmlns:rdf="http://www.w3.org/1999/02/22-rdf-syntax-ns#"
   xmlns:svg="http://www.w3.org/2000/svg"
   xmlns="http://www.w3.org/2000/svg"
   xmlns:sodipodi="http://sodipodi.sourceforge.net/DTD/sodipodi-0.dtd"
   xmlns:inkscape="http://www.inkscape.org/namespaces/inkscape"
   width="1em"
   height="1em"
   viewBox="0 0 16 16"
   class="bi bi-people"
   fill="currentColor"
   version="1.1"
   id="svg4"
   sodipodi:docname="tranferenciacompra.svg"
   inkscape:version="0.92.1 r15371">
  <metadata
     id="metadata10">
    <rdf:RDF>
      <cc:Work
         rdf:about="">
        <dc:format>image/svg+xml</dc:format>
        <dc:type
           rdf:resource="http://purl.org/dc/dcmitype/StillImage" />
        <dc:title></dc:title>
      </cc:Work>
    </rdf:RDF>
  </metadata>
  <defs
     id="defs8">
    <inkscape:perspective
       sodipodi:type="inkscape:persp3d"
       inkscape:vp_x="0 : 8 : 1"
       inkscape:vp_y="0 : 1000 : 0"
       inkscape:vp_z="16 : 8 : 1"
       inkscape:persp3d-origin="8 : 5.3333333 : 1"
       id="perspective3763" />
  </defs>
  <sodipodi:namedview
     pagecolor="#ffffff"
     bordercolor="#666666"
     borderopacity="1"
     objecttolerance="10"
     gridtolerance="10"
     guidetolerance="10"
     inkscape:pageopacity="0"
     inkscape:pageshadow="2"
     inkscape:window-width="1366"
     inkscape:window-height="723"
     id="namedview6"
     showgrid="false"
     inkscape:zoom="45.254834"
     inkscape:cx="11.265664"
     inkscape:cy="7.4402593"
     inkscape:window-x="0"
     inkscape:window-y="0"
     inkscape:window-maximized="1"
     inkscape:current-layer="svg4" />
  <g
     sodipodi:type="inkscape:box3d"
     id="g3765"
     style="opacity:0.46799999;fill:#666666;fill-opacity:0;fill-rule:evenodd;stroke:#0c4885;stroke-width:1.00157475;stroke-linejoin:round;stroke-miterlimit:4;stroke-dasharray:3.00472426, 1.00157475;stroke-dashoffset:0;stroke-opacity:1"
     inkscape:perspectiveID="#perspective3763"
     inkscape:corner0="5.506597 : 0.032992267 : 0 : 1"
     inkscape:corner7="2.6476378 : -0.012575042 : 0.25 : 1">
    <path
       sodipodi:type="inkscape:box3dside"
       id="path3767"
       style="fill:#353564;fill-rule:evenodd;stroke:none;stroke-linejoin:round"
       inkscape:box3dsidetype="6"
       d="M 1.2295214,3.3392533 V 10.342501 L 1.776042,10.255826 V 3.511705 Z"
       points="1.2295214,10.342501 1.776042,10.255826 1.776042,3.511705 1.2295214,3.3392533 " />
    <path
       sodipodi:type="inkscape:box3dside"
       id="path3775"
       style="fill:#afafde;fill-rule:evenodd;stroke:none;stroke-linejoin:round"
       inkscape:box3dsidetype="13"
       d="M 1.2295214,10.342501 2.1932002,12.178515 3.0787879,11.910499 1.776042,10.255826 Z"
       points="2.1932002,12.178515 3.0787879,11.910499 1.776042,10.255826 1.2295214,10.342501 " />
    <path
       sodipodi:type="inkscape:box3dside"
       id="path3777"
       style="fill:#e9e9ff;fill-rule:evenodd;stroke:none;stroke-linejoin:round"
       inkscape:box3dsidetype="11"
       d="M 1.776042,3.511705 3.0787879,0.21949246 V 11.910499 L 1.776042,10.255826 Z"
       points="3.0787879,0.21949246 3.0787879,11.910499 1.776042,10.255826 1.776042,3.511705 " />
    <path
       sodipodi:type="inkscape:box3dside"
       id="path3769"
       style="fill:#4d4d9f;fill-rule:evenodd;stroke:none;stroke-linejoin:round"
       inkscape:box3dsidetype="5"
       d="M 1.2295214,3.3392533 2.1932002,-0.31376413 3.0787879,0.21949246 1.776042,3.511705 Z"
       points="2.1932002,-0.31376413 3.0787879,0.21949246 1.776042,3.511705 1.2295214,3.3392533 " />
    <path
       sodipodi:type="inkscape:box3dside"
       id="path3773"
       style="fill:#d7d7ff;fill-rule:evenodd;stroke:none;stroke-linejoin:round"
       inkscape:box3dsidetype="14"
       d="M 2.1932002,-0.31376413 V 12.178515 L 3.0787879,11.910499 V 0.21949246 Z"
       points="2.1932002,12.178515 3.0787879,11.910499 3.0787879,0.21949246 2.1932002,-0.31376413 " />
    <path
       sodipodi:type="inkscape:box3dside"
       id="path3771"
       style="fill:#8686bf;fill-rule:evenodd;stroke:none;stroke-linejoin:round"
       inkscape:box3dsidetype="3"
       d="M 1.2295214,3.3392533 2.1932002,-0.31376413 V 12.178515 L 1.2295214,10.342501 Z"
       points="2.1932002,-0.31376413 2.1932002,12.178515 1.2295214,10.342501 1.2295214,3.3392533 " />
  </g>
  <path
     style="fill:#e6e6e6;fill-rule:evenodd;stroke-width:0.99999994"
     d="m 12.694934,12.577414 c -0.07288,0.435764 -1.587139,1.766472 -1.552585,1.472976 l 0.237927,-0.84102 -10.6483071,0.03886 c -0.20246659,7.44e-4 -0.3053928,-0.358191 -0.23250471,-0.793959 0.072879,-0.435768 0.29325042,-0.779128 0.49558898,-0.779239 l 10.50416483,0.174179 0.09528,-0.779601 c 0.03589,-0.2936 1.173324,1.07204 1.10044,1.507805 z"
     id="rect3791"
     inkscape:connector-curvature="0"
     sodipodi:nodetypes="sscssscss" />
  <text
     xml:space="preserve"
     style="font-style:normal;font-weight:normal;font-size:11.49918938px;line-height:1.25;font-family:sans-serif;letter-spacing:0px;word-spacing:0px;fill:#e6e6e6;fill-opacity:1;stroke:none;stroke-width:0.99999976"
     x="7.0215769"
     y="9.679122"
     id="text3796"
     transform="scale(1.128943,0.88578429)"><tspan
       sodipodi:role="line"
       id="tspan3794"
       x="7.0215769"
       y="9.679122"
       style="fill:#e6e6e6;stroke-width:0.99999976">$</tspan></text>
  <path
     inkscape:connector-curvature="0"
     style="fill:#e6e6e6;fill-rule:evenodd;stroke-width:0.99999994"
     d="m 1.0635103,9.9821934 c 0,0 -0.45336885,0 -0.45336885,-0.7124522 0,-0.7124507 0.45336885,-2.8498047 2.72021325,-2.8498047 2.2668442,0 2.7202133,2.137354 2.7202133,2.8498047 0,0.7124522 -0.4533691,0.7124522 -0.4533691,0.7124522 z M 3.3303547,5.7074851 a 1.3601067,2.1373543 0 1 0 0,-4.2747085 1.3601066,2.1373543 0 0 0 0,4.2747085 z M 6.5039368,6.7761623 A 0.22668443,0.3562257 0 0 1 6.7306213,6.4199365 h 0.9067376 a 0.22668443,0.3562257 0 0 1 0,0.7124511 H 6.7306213 A 0.22668443,0.3562257 0 0 1 6.5039368,6.7761623 Z M 5.5971989,4.638808 A 0.22668443,0.3562257 0 0 1 5.8238835,4.2825822 h 1.8134754 a 0.22668444,0.35622572 0 0 1 0,0.7124514 H 5.8238835 A 0.22668443,0.3562257 0 0 1 5.5971989,4.638808 Z m 0,-2.1373543 A 0.22668443,0.3562257 0 0 1 5.8238835,2.145228 h 1.8134754 a 0.22668446,0.35622575 0 0 1 0,0.7124515 H 5.8238835 A 0.22668443,0.3562257 0 0 1 5.5971989,2.5014537 Z M 6.5039368,8.9135158 A 0.22668443,0.3562257 0 0 1 6.7306213,8.5572905 h 0.9067376 a 0.22668443,0.3562257 0 0 1 0,0.7124507 H 6.7306213 A 0.22668443,0.3562257 0 0 1 6.5039368,8.9135158 Z"
     id="path2" />
</svg>
